CE 32 32 
AU 25 32 
AU 39 32 
BA 32 39 
BA 32 25 
MA 4 32 
ZE 39 24 
ZE 31 20 
AL 42 25 
ZE 31 48 
ZE 7 28 
ZE 3 4 
ZE 3 52 
HI 32 4 
ZE 51 16 
ZE 55 16 
ZE 51 32 
ZE 11 16 
ZE 11 60 
ZE 15 4 
ZE 19 0 
ZE 27 60 
ZE 15 48 
ZE 7 32 
ZE 31 60 
ZE 27 12 
ZE 23 44 
ZE 51 32 
ZE 63 40 
ZE 39 60 
ZE 39 40 
ZE 47 0 
ZE 15 24 
ZE 23 52 
ZE 55 52 
ZE 15 12 
ZE 43 24 
ZE 11 44 
ZE 59 16 
ZE 47 36 
ZE 43 28 
ZE 3 52 
ZE 27 4 
HI 12 11 
ME 11 53 
ZE 39 52 
ZE 55 36 
ZE 23 24 
ZE 7 56 
ZE 15 44 
ZE 15 60 
ZE 51 32 
ZE 43 32 
TA 25 32 
ZE 3 4 
ZE 31 52 
ZE 43 44 
ZE 51 36 
ZE 19 4 
ZE 15 0 
ZE 31 0 
ZE 51 56 
ZE 19 56 
ZE 63 28 
ZE 19 52 
PL 37 42 
ZE 39 20 
ZE 27 8 
ZE 7 52 
ZE 31 8 
ZE 27 36 
ZE 31 56 
ZE 31 8 
ZE 63 0 
ZE 63 52 
MU 30 40 
ZE 43 52 
ZE 27 16 
HI 14 21 
ZE 3 44 
ZE 7 52 
ZE 63 0 
ZE 35 16 
ZE 27 40 
ZE 51 56 
ZE 51 4 
ZE 43 52 
ZE 19 24 
ZE 59 44 
ZE 31 60 
ZE 23 36 
ZE 59 40 
ZE 11 20 
ZE 35 28 
ZE 19 48 
ZE 23 60 
ZE 23 16 
ZE 51 8 
ZE 47 32 
ZE 23 28 
AL 38 53 
ZE 3 36 
ZE 23 44 
ZE 51 56 
ZE 3 24 
ZE 19 24 
ZE 43 0 
ZE 11 16 
ZE 39 24 
ZE 51 60 
ZE 27 52 
ZE 3 48 
ZE 39 32 
ME 57 1 
ZE 3 28 
ZE 7 60 
ZE 43 20 
ZE 3 48 
ZE 31 12 
ZE 43 0 
ZE 11 40 
ZE 3 36 
ZE 47 12 
ZE 7 52 
ZE 55 0 
ZE 3 48 
ZE 35 4 
MU 30 45 
AL 34 1 
ZE 19 32 
ZE 27 12 
ZE 51 44 
MU 30 24 
ZE 23 12 
ZE 7 56 
ZE 19 8 
ZE 23 12 
ZE 11 48 
ZE 35 56 
AL 16 53 
ZE 63 12 
ZE 47 36 
ZE 31 56 
ZE 23 4 
ZE 55 48 
ZE 27 48 
ZE 19 28 
ZE 59 60 
ZE 35 52 
ZE 55 12 
ZE 39 56 
ME 23 5 
ZE 55 4 
AL 12 37 
ZE 11 4 
ZE 35 36 
ZE 31 0 
ZE 23 48 
ZE 63 28 
ZE 31 40 
ZE 35 56 
ZE 47 12 
ZE 35 4 
ZE 31 8 
ZE 19 20 
ZE 27 40 
ZE 3 12 
AL 28 33 
ZE 35 20 
ZE 35 16 
ZE 3 4 
ZE 31 44 
ZE 23 8 
ZE 59 36 
ME 3 55 
ZE 7 4 
ZE 15 12 
ZE 27 28 
ZE 59 48 
ZE 27 0 
ZE 11 16 
ZE 31 52 
ZE 15 52 
ZE 55 28 
ZE 31 20 
ZE 35 20 
ZE 63 28 
ME 11 41 
ME 49 57 
AL 38 33 
ZE 23 44 
ZE 51 0 
ZE 11 36 
ME 43 25 
ZE 35 24 
ZE 59 8 
ZE 7 32 
ZE 35 0 
AL 28 25 
ZE 51 60 
ZE 55 16 
ZE 19 36 
ZE 19 36 
ZE 15 44 
ME 19 23 
ME 11 9 
ZE 39 0 
ZE 55 32 
ZE 39 16 
ZE 43 60 
ZE 59 4 
AL 40 31 
ZE 27 24 
ZE 23 0 
ZE 11 32 
ZE 63 52 
ZE 43 48 
ZE 7 16 
ZE 15 52 
ZE 55 44 
ZE 15 8 
ME 55 29 
ZE 63 0 
ME 7 19 
ZE 3 48 
ZE 51 28 
AL 44 27 
ZE 3 0 
ZE 3 36 
ZE 11 48 
ZE 23 52 
ME 31 21 
ZE 19 20 
AL 32 29 
ME 47 59 
ZE 11 20 
ZE 11 32 
ZE 3 32 
ZE 59 48 
ZE 59 16 
ZE 59 4 
ZE 55 40 
ZE 3 24 
ZE 59 24 
ME 51 47 
AL 30 35 
ZE 3 8 
ZE 3 28 
ZE 7 44 
ZE 63 16 
ZE 3 24 
