INDEX VERSION 1.126+C:\Users\Cristobal\Desktop\Life\life-space\LifeSpace App\.metadata\.plugins\org.eclipse.jdt.core
3015671029.index
3521617142.index
283489331.index
3626931047.index
2706502329.index
935321093.index
683184654.index
3256372620.index
4184666847.index
294881951.index
219498372.index
4042874.index
2961582686.index
1308364398.index
1776835018.index
3574739933.index
728132027.index
3903249856.index
3614543720.index
1884807956.index
1107959455.index
2708239607.index
796331039.index
1144188029.index
408746751.index
1820024274.index
2944856956.index
1075156909.index
1101838005.index
3211719767.index
4149142647.index
739078005.index
4018706093.index
384216248.index
